<svg id="d82043f8-02b6-4a6f-8650-b252ecac20ff" data-name="Слой 1" xmlns="http://www.w3.org/2000/svg" viewBox="0 0 77.43 74.44">
  <defs>
    <style>
      .\37 e727f48-d817-461e-acf5-8d3d25d08002 {
        fill: #30b7ff;
      }
    </style>
  </defs>
  <title>Звезды</title>
  <path class="7e727f48-d817-461e-acf5-8d3d25d08002" d="M43.2,3.75h0M38.49,11l3.19,5.44,5.27,9A7.3,7.3,0,0,0,51.89,29l14.83,3.11-1,1.2q-4.42,5.27-8.85,10.53A7.18,7.18,0,0,0,55.14,49q0.44,6.81.86,13.62L56.15,65,41.76,58.35a7.18,7.18,0,0,0-6.18,0L21.65,64.75l0.41-3.64,0.54-4.74,0.25-2.22q0.3-2.62.6-5.24a6.87,6.87,0,0,0-1.78-5.65L11.33,32.07l6.41-1.21,1.62-.31,4.23-.8a7.21,7.21,0,0,0,4.87-3.25l6.23-9.62L38.49,11M38.73,0a0.85,0.85,0,0,0-.57.5Q30.81,11.89,23.42,23.25a1.26,1.26,0,0,1-.91.6L16.63,25,0,28.11v0.65H0a0.52,0.52,0,0,1,.36.3q8.44,9.14,16.89,18.29a1,1,0,0,1,.23.87c-0.29,2.5-.57,5-0.85,7.49Q16,61.1,15.41,66.51c-0.28,2.45-.56,4.91-0.83,7.36,0,0.4,0,.57.17,0.57a1.4,1.4,0,0,0,.45-0.13l0.41-.18Q26.86,69,38.1,63.78a1.31,1.31,0,0,1,.56-0.14,1.36,1.36,0,0,1,.58.15Q50.49,69,61.75,74.2a2.48,2.48,0,0,0,.41.19,1.17,1.17,0,0,0,.27,0c0.2,0,.31-0.11.28-0.48-0.26-3.9-.49-7.81-0.73-11.71q-0.42-6.82-.86-13.64a1.2,1.2,0,0,1,.32-0.92Q66.79,41.35,72.11,35l5.05-6c0.41-.49.34-0.74-0.19-0.85Q65,25.61,53.11,23.1a1.33,1.33,0,0,1-1-.7Q45.72,11.47,39.31.53A0.84,0.84,0,0,0,38.73,0h0Z"/>
</svg>
